<?xml version="1.0" encoding="utf-8"?>
<!-- Generator: Adobe Illustrator 19.2.1, SVG Export Plug-In . SVG Version: 6.00 Build 0)  -->
<svg version="1.1" id="Layer_1" xmlns="http://www.w3.org/2000/svg" xmlns:xlink="http://www.w3.org/1999/xlink" x="0px" y="0px"
	 viewBox="0 0 24 24" style="enable-background:new 0 0 24 24;" xml:space="preserve">
<style type="text/css">
	.st0{fill:#008080;}
	.st1{fill:#009696;}
	.st2{fill:#FFFFFF;}
</style>
<path class="st0" d="M3.5,20.5C5.7,22.7,8.7,24,12,24c6.6,0,12-5.4,12-12c0-3.3-1.3-6.3-3.5-8.5L3.5,20.5z"/>
<path class="st1" d="M12,0C5.4,0,0,5.4,0,12c0,3.3,1.3,6.3,3.5,8.5l17-17C18.3,1.3,15.3,0,12,0z"/>
<path class="st2" d="M19,18.2l-1.6-1.6c0.3-0.5,0.5-1,0.5-1.6c0-1.6-1.3-2.9-2.9-2.9S12,13.3,12,14.9s1.3,2.9,2.9,2.9
	c0.6,0,1.1-0.2,1.6-0.5l1.6,1.6L19,18.2z M13.2,14.9c0-1,0.8-1.8,1.8-1.8s1.7,0.8,1.7,1.8s-0.8,1.8-1.7,1.8S13.2,15.9,13.2,14.9z
	 M10.8,14.9L10.8,14.9l-1.8,1.2V8.5l2.3-1.7v6c0.3-0.5,0.7-0.9,1.2-1.3V6.9l2.3,1.7v2.3h0c0.2,0,0.4,0,0.6,0V8.5l2.3-1.4v5
	c0.7,0.7,1.1,1.7,1.2,2.7V5l-3.8,2.3L12,5L8.8,7.3L5,5v10.5l3.8,2.3l2.3-1.6C10.9,15.8,10.8,15.4,10.8,14.9z M8.5,16.3l-2.3-1.4V7.1
	l2.3,1.4V16.3z"/>
</svg>
